Quality control–based robust LOESS signal correction (QC-RLSC)
…
    ## get median of qc data
    qc_dat <- x[qc_ind]
    qc_median <- median(qc_dat, na.rm = TRUE)
    ## assign other data as NA for QC outlier detection
    tmp <- x
    tmp[!qc_ind] <- NA
    ## QC outlier detection
    out_ind <- outl_det_u(tmp)
    ## assign outlier as qc median
    x[out_ind] <- qc_median
    return(x)
  }) %>% as_tibble()
}
dat
#> # A tibble: 462 × 649
#>       V3   V13   V17   V18   V19   V20   V22   V23   V25   V26   V31   V33   V34
#>    <dbl> <dbl> <dbl> <dbl> <dbl> <dbl> <dbl> <dbl> <dbl> <dbl> <dbl> <dbl> <dbl>
#>  1  5.94 NA    NA    NA    NA    NA    NA    NA    NA    NA    NA    NA    NA   
#>  2  6.08  4.82  4.38  5.74  8.18  5.66  4.97  7.46  4.74  7.28  4.88  6.59  6.88
#>  3  5.96  4.82 NA     5.70  8.15  5.62  4.96  7.47 NA     7.28  4.87  6.64  6.90
#>  4  6.04  4.78  4.58  5.69  8.12  5.60  4.98  7.48  4.75  7.29  4.89  6.61  6.91
#>  5  5.99  4.57  4.64  5.68  8.14  5.61  4.92  7.45  4.71  7.27  4.72  6.57  6.91
#>  6  6.04  4.66  4.69  5.67  8.13  5.60  4.95  7.47  4.74  7.28  4.75  6.56  6.92
#>  7  6.05  4.68  4.67  5.68  8.13  5.60  4.99  7.47  4.75  7.28  4.78  6.56  6.91
#>  8  5.95  4.58  4.78  5.65  8.09  5.57  4.96  7.46  4.73  7.28  4.71  6.56  6.93
#>  9  5.97  4.87  4.59  5.63  8.10  5.57  4.95  7.47 NA     7.28  4.93  6.61  6.90
#> 10  6.02  4.91  4.58  5.61  8.08  5.54  4.98  7.47  4.73  7.29  4.97  6.65  6.91
#> # ℹ 452 more rows
#> # ℹ 636 more variables: V38 <dbl>, V39 <dbl>, V45 <dbl>, V46 <dbl>, V47 <dbl>,
#> #   V48 <dbl>, V50 <dbl>, V51 <dbl>, V66 <dbl>, V68 <dbl>, V71 <dbl>,
#> #   V72 <dbl>, V73 <dbl>, V74 <dbl>, V104 <dbl>, V106 <dbl>, V112 <dbl>,
#> #   V115 <dbl>, V116 <dbl>, V121 <dbl>, V122 <dbl>, V123 <dbl>, V124 <dbl>,
#> #   V125 <dbl>, V126 <dbl>, V128 <dbl>, V134 <dbl>, V138 <dbl>, V140 <dbl>,
#> #   V142 <dbl>, V147 <dbl>, V149 <dbl>, V157 <dbl>, V158 <dbl>, V159 <dbl>, …
…
